…
Then you can use the extension to read point cloud data from various formats (e.g., LAS, LAZ) and perform transformations on them.

This is the list of available functions:

+ ### PDAL_Drivers

    Returns the list of supported stage types of a PDAL Pipeline.

	The stages of a PDAL Pipeline are divided into Readers, Filters and Writers: https://pdal.io/en/stable/stages/stages.html

    ```sql
    SELECT * FROM PDAL_Drivers();

    ┌─────────────────────────────┬─────────────────────────────────────────────────────────────────────────────────┬───────────┐
    │            name             │                                     description                                 │  category │
    │           varchar           │                                       varchar                                   │  varchar  │
    ├─────────────────────────────┼─────────────────────────────────────────────────────────────────────────────────┼───────────┤
    │ filters.approximatecoplanar │ Estimates the planarity of a neighborhood of points using eigenvalues.          │  filters  │
    │ filters.assign              │ Assign values for a dimension range to a specified value.                       │  filters  │
    │ filters.chipper             │ Organize points into spatially contiguous, squarish, and non-overlapping chips. │  filters  │
    │ filters.cluster             │ Extract and label clusters using Euclidean distance.                            │  filters  │
    │ filters.colorinterp         │ Assigns RGB colors based on a dimension and a ramp                              │  filters  │
    │ filters.colorization        │ Fetch and assign RGB color information from a GDAL-readable datasource.         │  filters  │
    │ filters.crop                │ Filter points inside or outside a bounding box or a polygon                     │  filters  │
    │ filters.csf                 │ Cloth Simulation Filter (Zhang et al., 2016)                                    │  filters  │
    │ filters.dbscan              │ DBSCAN Clustering.                                                              │  filters  │
    │ filters.decimation          │ Rank decimation filter. Keep every Nth point                                    │  filters  │
    │ filters.delaunay            │ Perform Delaunay triangulation of a pointcloud                                  │  filters  │
    │ filters.dem                 │ Filter points about an elevation surface                                        │  filters  │
    │ filters.divider             │ Divide points into approximately equal sized groups based on a simple scheme    │  filters  │
    │ filters.eigenvalues         │ Returns the eigenvalues for a given point, based on its k-nearest neighbors.    │  filters  │
    │ filters.elm                 │ Marks low points as noise.                                                      │  filters  │
    │ filters.estimaterank        │ Computes the rank of a neighborhood of points.                                  │  filters  │
    │ filters.expression          │ Pass only points given an expression                                            │  filters  │
    │ filters.expressionstats     │ Accumulate count statistics for a given dimension for an array of expressions   │  filters  │
    │ filters.faceraster          │ Face Raster Filter                                                              │  filters  │
    │      ·                      │      ·                                                                          │     ·     │
    │      ·                      │      ·                                                                          │     ·     │
    │      ·                      │      ·                                                                          │     ·     │
    │ readers.slpk                │ SLPK Reader                                                                     │  readers  │
    │ readers.smrmsg              │ SBET smrmsg Reader                                                              │  readers  │
    │ readers.stac                │ STAC Reader                                                                     │  readers  │
    │ readers.terrasolid          │ TerraSolid Reader                                                               │  readers  │
    │ readers.text                │ Text Reader                                                                     │  readers  │
    │ readers.tindex              │ TileIndex Reader                                                                │  readers  │
    │ writers.copc                │ COPC Writer                                                                     │  writers  │
    │ writers.ept_addon           │ EPT Writer                                                                      │  writers  │
    │ writers.fbi                 │ FBI Writer                                                                      │  writers  │
    │ writers.gdal                │ Write a point cloud as a GDAL raster.                                           │  writers  │
    │ writers.gltf                │ Gltf Writer                                                                     │  writers  │
    │ writers.las                 │ ASPRS LAS 1.0 - 1.4 writer                                                      │  writers  │
    │ writers.ogr                 │ Write a point cloud as a set of OGR points/multipoints                          │  writers  │
    │ writers.pcd                 │ Write data in the Point Cloud Library (PCL) format.                             │  writers  │
    │ writers.ply                 │ ply writer                                                                      │  writers  │
    │ writers.raster              │ Write a raster.                                                                 │  writers  │
    │ writers.sbet                │ SBET Writer                                                                     │  writers  │
    │ writers.text                │ Text Writer                                                                     │  writers  │
    ├─────────────────────────────┴─────────────────────────────────────────────────────────────────────────────────┴───────────┤
    │ 119 rows (40 shown)                                                                                             3 columns │
…
